Regular expressions and simple models
…
4 Multiple models

Also check out the chapter Many Models in the R for Data Science book.

gapminder %>%
  group_by(country, continent) %>% 
  nest() -> gapm_country
gapm_country
#> # A tibble: 142 x 3
#> # Groups:   country, continent [710]
#>    country     continent           data
#>    <fct>       <fct>     <list<df[,4]>>
#>  1 Afghanistan Asia            [12 x 4]
#>  2 Albania     Europe          [12 x 4]
#>  3 Algeria     Africa          [12 x 4]
#>  4 Angola      Africa          [12 x 4]
#>  5 Argentina   Americas        [12 x 4]
#>  6 Australia   Oceania         [12 x 4]
#>  7 Austria     Europe          [12 x 4]
#>  8 Bahrain     Asia            [12 x 4]
#>  9 Bangladesh  Asia            [12 x 4]
#> 10 Belgium     Europe          [12 x 4]
#> # ... with 132 more rows

# And then run the lm function only once!
gapm_country %>% 
  mutate(model = purrr::map(data, ~ lm(lifeExp ~ year, data = .x))) -> country_model
country_model
#> # A tibble: 142 x 4
#> # Groups:   country, continent [710]
#>    country     continent           data model 
#>    <fct>       <fct>     <list<df[,4]>> <list>
#>  1 Afghanistan Asia            [12 x 4] <lm>  
#>  2 Albania     Europe          [12 x 4] <lm>  
#>  3 Algeria     Africa          [12 x 4] <lm>  
#>  4 Angola      Africa          [12 x 4] <lm>  
#>  5 Argentina   Americas        [12 x 4] <lm>  
#>  6 Australia   Oceania         [12 x 4] <lm>  
#>  7 Austria     Europe          [12 x 4] <lm>  
#>  8 Bahrain     Asia            [12 x 4] <lm>  
#>  9 Bangladesh  Asia            [12 x 4] <lm>  
#> 10 Belgium     Europe          [12 x 4] <lm>  
#> # ... with 132 more rows

# Using the `tidy()` function from the `broom` package we can see each model result in one data frame!
country_model %>% 
  mutate(tidy_models = purrr::map(model, broom::tidy)) %>% # replace with `broom::augment` and `broom::glance`
  unnest(tidy_models) -> model_summary
model_summary
#> # A tibble: 284 x 9
#> # Groups:   country, continent [710]
#>    country     continent           data model  term         estimate std.error statistic  p.value
#>    <fct>       <fct>     <list<df[,4]>> <list> <chr>           <dbl>     <dbl>     <dbl>    <dbl>
#>  1 Afghanistan Asia            [12 x 4] <lm>   (Intercept)  -508.     40.5        -12.5  1.93e- 7
#>  2 Afghanistan Asia            [12 x 4] <lm>   year            0.275   0.0205      13.5  9.84e- 8
#>  3 Albania     Europe          [12 x 4] <lm>   (Intercept)  -594.     65.7         -9.05 3.94e- 6
#>  4 Albania     Europe          [12 x 4] <lm>   year            0.335   0.0332      10.1  1.46e- 6
#>  5 Algeria     Africa          [12 x 4] <lm>   (Intercept) -1068.     43.8        -24.4  3.07e-10
#>  6 Algeria     Africa          [12 x 4] <lm>   year            0.569   0.0221      25.7  1.81e-10
#>  7 Angola      Africa          [12 x 4] <lm>   (Intercept)  -377.     46.6         -8.08 1.08e- 5
#>  8 Angola      Africa          [12 x 4] <lm>   year            0.209   0.0235       8.90 4.59e- 6
#>  9 Argentina   Americas        [12 x 4] <lm>   (Intercept)  -390.      9.68       -40.3  2.14e-12
#> 10 Argentina   Americas        [12 x 4] <lm>   year            0.232   0.00489     47.4  4.22e-13
#> # ... with 274 more rows
…
# also check here https://forcats.tidyverse.org/index.html

# combination of multiple variables ?case_when

# case_when is particularly useful inside mutate when you want to
# create a new variable that relies on a complex combination of existing
# variables
starwars %>%
  select(name:mass, gender, species) %>%
  mutate(type = case_when(
    height > 200 | mass > 200 ~ "large",
    species == "Droid"        ~ "robot",
    TRUE                      ~ "other"
  ))
#> # A tibble: 87 x 6
#>    name               height  mass gender species type 
#>    <chr>               <int> <dbl> <chr>  <chr>   <chr>
#>  1 Luke Skywalker        172    77 male   Human   other
#>  2 C-3PO                 167    75 <NA>   Droid   robot
#>  3 R2-D2                  96    32 <NA>   Droid   robot
#>  4 Darth Vader           202   136 male   Human   large
#>  5 Leia Organa           150    49 female Human   other
#>  6 Owen Lars             178   120 male   Human   other
#>  7 Beru Whitesun lars    165    75 female Human   other
#>  8 R5-D4                  97    32 <NA>   Droid   robot
#>  9 Biggs Darklighter     183    84 male   Human   other
#> 10 Obi-Wan Kenobi        182    77 male   Human   other
#> # ... with 77 more rows
…
